…
Example 2: Thermodynamic Model (MELTS) Data set

MELTS is “a software package designed to facilitate thermodynamic modeling of phase equilibria in magmatic systems. It provides the ability to compute equilibrium phase relations for igneous systems over the temperature range 500-2000 °C and the pressure range 0-2 GPa.”

Over the last years, MELTS has (to my knowledge) become one of the most popular thermodynamic modeling suites for petrology-related research. The advantages of modelling over experimental approaches we have already discussed. Now we will look at a modeled data set with a much much finer temperature resolution than ever would be possible to accomplish in a lab.

# You can download the data we will use from GitHub:
df_MELTS <- read_csv("https://raw.githubusercontent.com/Ignimbrit/exchange/master/data/2020/MELTS_DAWN_simplified.csv")

phases_MELTS <- df_MELTS %>% dplyr::select(-P_MPa, -T_C) %>% colnames() 

df_MELTS

## # A tibble: 266 x 8
##      T_C P_MPa biotite clinopyroxene feldspar olivine orthopyroxene spinel
##    <dbl> <dbl> <lgl>   <lgl>         <lgl>    <lgl>   <lgl>         <lgl> 
##  1 1222.   100 FALSE   FALSE         FALSE    TRUE    FALSE         FALSE 
##  2 1217.   100 FALSE   FALSE         FALSE    TRUE    FALSE         FALSE 
##  3 1212.   100 FALSE   FALSE         FALSE    TRUE    FALSE         FALSE 
##  4 1207.   100 FALSE   FALSE         FALSE    TRUE    FALSE         FALSE 
##  5 1202.   100 FALSE   FALSE         FALSE    TRUE    FALSE         FALSE 
##  6 1197.   100 FALSE   FALSE         FALSE    TRUE    FALSE         FALSE 
##  7 1192.   100 FALSE   FALSE         FALSE    TRUE    FALSE         FALSE 
##  8 1187.   100 FALSE   FALSE         FALSE    TRUE    FALSE         FALSE 
##  9 1182.   100 FALSE   FALSE         FALSE    TRUE    FALSE         FALSE 
## 10 1177.   100 FALSE   FALSE         FALSE    TRUE    FALSE         FALSE 
## # ... with 256 more rows
…
