…
pts_NH4 <- readr::read_csv(
  "https://raw.githubusercontent.com/Ignimbrit/exchange/master/data/2020/Ammonium_Hoppegarten.csv",
  col_types = cols(NH4 = col_double(), 
                   X = col_double(), Y = col_double(), 
                   fid = col_character(), licence = col_character())
  ) %>% 
  dplyr::select(X, Y, NH4)

print(pts_NH4)

## # A tibble: 64 x 3
##          X        Y   NH4
##      <dbl>    <dbl> <dbl>
##  1 406521. 5814334.   2.3
##  2 409320. 5814598.  20.2
##  3 410322. 5814606.   0.3
##  4 408804. 5814825.   4.1
##  5 409049. 5814830.   2.5
##  6 408701. 5814896.  11.3
##  7 408843. 5814898.  16.1
##  8 409022. 5814928.   3  
##  9 408865. 5814943.  12  
## 10 408729. 5814949.  24.4
## # ... with 54 more rows
…
